<?xml version="1.0" encoding="UTF-8"?>
<svg width="32px" height="25px" viewBox="0 0 32 25" version="1.1" xmlns="http://www.w3.org/2000/svg" xmlns:xlink="http://www.w3.org/1999/xlink">
    <!-- Generator: Sketch 49.3 (51167) - http://www.bohemiancoding.com/sketch -->
    <title>youtube</title>
    <desc>Created with Sketch.</desc>
    <defs>
        <path d="M18.947038,0.946804969 L5.26175747,0.946804969 C2.57681046,0.946804969 0.400072011,3.17981816 0.400072011,5.93387117 L0.400072011,12.9522346 C0.400072011,15.706595 2.57681046,17.9391984 5.26175747,17.9391984 L18.947038,17.9391984 C21.6320849,17.9391984 23.8084239,15.7061852 23.8084239,12.9522346 L23.8084239,5.93387117 C23.8084239,3.17981816 21.6316855,0.946804969 18.947038,0.946804969 Z M15.6590115,9.78440261 L9.25831997,12.9161736 C9.08745245,12.9998719 8.89042052,12.8721219 8.89042052,12.6784992 L8.89042052,6.21918299 C8.89042052,6.02228198 9.09254552,5.89504418 9.26341304,5.98386477 L15.6644042,9.31140991 C15.8551447,9.41016776 15.8516495,9.69035728 15.6590115,9.78440261 Z" id="path-1"></path>
        <filter x="-29.9%" y="-29.4%" width="159.8%" height="182.4%" filterUnits="objectBoundingBox" id="filter-2">
            <feOffset dx="0" dy="2" in="SourceAlpha" result="shadowOffsetOuter1"></feOffset>
            <feGaussianBlur stdDeviation="2" in="shadowOffsetOuter1" result="shadowBlurOuter1"></feGaussianBlur>
            <feColorMatrix values="0 0 0 0 0   0 0 0 0 0   0 0 0 0 0  0 0 0 0.5 0" type="matrix" in="shadowBlurOuter1"></feColorMatrix>
        </filter>
    </defs>
    <g id="mobile" stroke="none" stroke-width="1" fill="none" fill-rule="evenodd">
        <g id="1-index-mainpage" transform="translate(-125.000000, -630.000000)">
            <g id="Group-2" transform="translate(42.000000, 631.000000)">
                <g id="youtube" transform="translate(87.000000, 0.000000)">
                    <g id="Fill-5">
                        <use fill="black" fill-opacity="1" filter="url(#filter-2)" xlink:href="#path-1"></use>
                        <use fill="#FFFFFF" fill-rule="evenodd" xlink:href="#path-1"></use>
                    </g>
                </g>
            </g>
        </g>
    </g>
</svg>